simulation/transcript
vsim -voptargs=+acc work.sqrt_tb
# vsim -voptargs="+acc" work.sqrt_tb 
# Start time: 11:19:16 on Dec 27,2024
# ** Note: (vsim-3812) Design is being optimized...
# ** Warning: (vopt-10587) Some optimizations are turned off because the +acc switch is in effect. This will cause your simulation to run slowly. Please use -access/-debug to maintain needed visibility.
# ** Note: (vsim-12126) Error and warning message counts have been restored: Errors=0, Warnings=1.
# Loading sv_std.std
# Loading work.sqrt_tb(fast)
# Loading work.sqrt(fast)
add wave -position end sim:/sqrt_tb/sqrt_inst/*
# ** Warning: (vsim-WLF-5000) WLF file currently in use: vsim.wlf
#           File in use by: samue  Hostname: SAMUEL  ProcessID: 9360
#           Attempting to use alternate WLF file "./wlft1veaq1".
# ** Warning: (vsim-WLF-5001) Could not open WLF file: vsim.wlf
#           Using alternate file: ./wlft1veaq1
run -all
# 	                   0:	sqrt(0.000000) = xxxxxxxxxxxxxxxxxxxxxxxxxxxxxxxx (0.000000) (rem = xxxxxxxxxxxxxxxxxxxxxxxxxxxxxxxx) (V=x)
# 	                 100:	sqrt(232.562500) = xxxxxxxxxxxxxxxxxxxxxxxxxxxxxxxx (0.000000) (rem = xxxxxxxxxxxxxxxxxxxxxxxxxxxxxxxx) (V=0)
# 	                 156:	sqrt(232.562500) = 00000000000011110100000000000000 (15.250000) (rem = 00000000000000000000000000000000) (V=1)
# 	                 230:	sqrt(0.250000) = 00000000000011110100000000000000 (15.250000) (rem = 00000000000000000000000000000000) (V=0)
# 	                 286:	sqrt(0.250000) = 00000000000000001000000000000000 (0.500000) (rem = 00000000000000000000000000000000) (V=1)
# 	                 360:	sqrt(2.000000) = 00000000000000001000000000000000 (0.500000) (rem = 00000000000000000000000000000000) (V=0)
# ** Note: $stop    : C:/Users/samue/Documents/Code/SystemVerilog/fluid_simulation/testbenches/sqrt_tb.sv(41)
#    Time: 370 ns  Iteration: 0  Instance: /sqrt_tb
# Break in Module sqrt_tb at C:/Users/samue/Documents/Code/SystemVerilog/fluid_simulation/testbenches/sqrt_tb.sv line 41
vsim -voptargs=+acc work.div_tb
# End time: 11:19:51 on Dec 27,2024, Elapsed time: 0:00:35
# Errors: 0, Warnings: 4
# vsim -voptargs="+acc" work.div_tb 
# Start time: 11:19:51 on Dec 27,2024
# ** Note: (vsim-3813) Design is being optimized due to module recompilation...
# ** Warning: (vopt-10587) Some optimizations are turned off because the +acc switch is in effect. This will cause your simulation to run slowly. Please use -access/-debug to maintain needed visibility.
# ** Note: (vsim-12126) Error and warning message counts have been restored: Errors=0, Warnings=1.
# Loading sv_std.std
# Loading work.div_tb(fast)
# Loading work.div(fast)
# Loading work.divu(fast)
add wave -position end sim:/div_tb/div_inst/*
# ** Warning: (vsim-WLF-5000) WLF file currently in use: vsim.wlf
#           File in use by: samue  Hostname: SAMUEL  ProcessID: 9360
#           Attempting to use alternate WLF file "./wlft1sjma5".
# ** Warning: (vsim-WLF-5001) Could not open WLF file: vsim.wlf
#           Using alternate file: ./wlft1sjma5
run -all
# 	                   0:	 N = 63.481918, D = 3.368408, Q = 63.481918, R = 0.000000, done = 0
# 	                  10:	 N = 63.481918, D = 3.368408, Q = 126.963837, R = 0.000000, done = 0
# 	                  12:	 N = 63.481918, D = 3.368408, Q = 253.927673, R = 0.000000, done = 0
# 	                  14:	 N = 63.481918, D = 3.368408, Q = 507.855347, R = 0.000000, done = 0
# 	                  16:	 N = 63.481918, D = 3.368408, Q = 1015.710693, R = 0.000000, done = 0
# 	                  18:	 N = 63.481918, D = 3.368408, Q = 2031.421387, R = 0.000000, done = 0
# 	                  20:	 N = 63.481918, D = 3.368408, Q = 4062.842773, R = 0.000000, done = 0
# 	                  22:	 N = 63.481918, D = 3.368408, Q = 8125.685547, R = 0.000000, done = 0
# 	                  24:	 N = 63.481918, D = 3.368408, Q = 16251.371094, R = 0.000000, done = 0
# 	                  26:	 N = 63.481918, D = 3.368408, Q = 32502.742188, R = 0.000000, done = 0
# 	                  28:	 N = 63.481918, D = 3.368408, Q = 32237.484375, R = 0.000015, done = 0
# 	                  30:	 N = 63.481918, D = 3.368408, Q = 31706.968750, R = 0.000046, done = 0
# 	                  32:	 N = 63.481918, D = 3.368408, Q = 30645.937500, R = 0.000107, done = 0
# 	                  34:	 N = 63.481918, D = 3.368408, Q = 28523.875000, R = 0.000229, done = 0
# 	                  36:	 N = 63.481918, D = 3.368408, Q = 24279.750000, R = 0.000473, done = 0
# 	                  38:	 N = 63.481918, D = 3.368408, Q = 15791.500000, R = 0.000961, done = 0
# 	                  40:	 N = 63.481918, D = 3.368408, Q = 31583.000000, R = 0.001923, done = 0
# 	                  42:	 N = 63.481918, D = 3.368408, Q = 30398.000000, R = 0.003860, done = 0
# 	                  44:	 N = 63.481918, D = 3.368408, Q = 28028.000000, R = 0.007736, done = 0
# 	                  46:	 N = 63.481918, D = 3.368408, Q = 23288.000000, R = 0.015488, done = 0
# 	                  48:	 N = 63.481918, D = 3.368408, Q = 13808.000000, R = 0.030991, done = 0
# 	                  50:	 N = 63.481918, D = 3.368408, Q = 27616.000000, R = 0.061981, done = 0
# 	                  52:	 N = 63.481918, D = 3.368408, Q = 22464.000000, R = 0.123978, done = 0
# 	                  54:	 N = 63.481918, D = 3.368408, Q = 12160.000000, R = 0.247971, done = 0
# 	                  56:	 N = 63.481918, D = 3.368408, Q = 24320.000000, R = 0.495941, done = 0
# 	                  58:	 N = 63.481918, D = 3.368408, Q = 15872.000000, R = 0.991898, done = 0
# 	                  60:	 N = 63.481918, D = 3.368408, Q = 31744.000000, R = 1.983795, done = 0
# 	                  62:	 N = 63.481918, D = 3.368408, Q = 30720.000015, R = 0.599197, done = 0
# 	                  64:	 N = 63.481918, D = 3.368408, Q = 28672.000031, R = 1.198410, done = 0
# 	                  66:	 N = 63.481918, D = 3.368408, Q = 24576.000061, R = 2.396835, done = 0
# 	                  68:	 N = 63.481918, D = 3.368408, Q = 16384.000137, R = 1.425278, done = 0
# 	                  70:	 N = 63.481918, D = 3.368408, Q = 0.000275, R = 2.850571, done = 0
# 	                  72:	 N = 63.481918, D = 3.368408, Q = 0.000565, R = 2.332733, done = 0
# 	                  74:	 N = 63.481918, D = 3.368408, Q = 0.001144, R = 1.297058, done = 0
# 	                  76:	 N = 63.481918, D = 3.368408, Q = 0.002289, R = 2.594116, done = 0
# 	                  78:	 N = 63.481918, D = 3.368408, Q = 0.004593, R = 1.819824, done = 0
# 	                  80:	 N = 63.481918, D = 3.368408, Q = 0.009201, R = 0.271240, done = 0
# 	                  82:	 N = 63.481918, D = 3.368408, Q = 0.018402, R = 0.542480, done = 0
# 	                  84:	 N = 63.481918, D = 3.368408, Q = 0.036804, R = 1.084961, done = 0
# 	                  86:	 N = 63.481918, D = 3.368408, Q = 0.073608, R = 2.169922, done = 0
# 	                  88:	 N = 63.481918, D = 3.368408, Q = 0.147232, R = 0.971436, done = 0
# 	                  90:	 N = 63.481918, D = 3.368408, Q = 0.294464, R = 1.942871, done = 0
# 	                  92:	 N = 63.481918, D = 3.368408, Q = 0.588943, R = 0.517334, done = 0
# 	                  94:	 N = 63.481918, D = 3.368408, Q = 1.177887, R = 1.034668, done = 0
# 	                  96:	 N = 63.481918, D = 3.368408, Q = 2.355774, R = 2.069336, done = 0
# 	                  98:	 N = 63.481918, D = 3.368408, Q = 4.711563, R = 0.770264, done = 0
# 	                 100:	 N = 63.481918, D = 3.368408, Q = 9.423126, R = 1.540527, done = 0
# 	                 102:	 N = 63.481918, D = 3.368408, Q = 18.846252, R = 3.081055, done = 1
# 	                 110:	 N = -49.773026, D = -3.860596, Q = 49.773026, R = 0.000000, done = 0
# 	                 120:	 N = -49.773026, D = -3.860596, Q = 99.546051, R = 0.000000, done = 0
# 	                 122:	 N = -49.773026, D = -3.860596, Q = 199.092102, R = 0.000000, done = 0
# 	                 124:	 N = -49.773026, D = -3.860596, Q = 398.184204, R = 0.000000, done = 0
# 	                 126:	 N = -49.773026, D = -3.860596, Q = 796.368408, R = 0.000000, done = 0
# 	                 128:	 N = -49.773026, D = -3.860596, Q = 1592.736816, R = 0.000000, done = 0
# 	                 130:	 N = -49.773026, D = -3.860596, Q = 3185.473633, R = 0.000000, done = 0
# 	                 132:	 N = -49.773026, D = -3.860596, Q = 6370.947266, R = 0.000000, done = 0
# 	                 134:	 N = -49.773026, D = -3.860596, Q = 12741.894531, R = 0.000000, done = 0
# 	                 136:	 N = -49.773026, D = -3.860596, Q = 25483.789062, R = 0.000000, done = 0
# 	                 138:	 N = -49.773026, D = -3.860596, Q = 18199.578125, R = 0.000015, done = 0
# 	                 140:	 N = -49.773026, D = -3.860596, Q = 3631.156250, R = 0.000046, done = 0
# 	                 142:	 N = -49.773026, D = -3.860596, Q = 7262.312500, R = 0.000092, done = 0
# 	                 144:	 N = -49.773026, D = -3.860596, Q = 14524.625000, R = 0.000183, done = 0
# 	                 146:	 N = -49.773026, D = -3.860596, Q = 29049.250000, R = 0.000366, done = 0
# 	                 148:	 N = -49.773026, D = -3.860596, Q = 25330.500000, R = 0.000748, done = 0
# 	                 150:	 N = -49.773026, D = -3.860596, Q = 17893.000000, R = 0.001511, done = 0
# 	                 152:	 N = -49.773026, D = -3.860596, Q = 3018.000000, R = 0.003036, done = 0
# 	                 154:	 N = -49.773026, D = -3.860596, Q = 6036.000000, R = 0.006073, done = 0
# 	                 156:	 N = -49.773026, D = -3.860596, Q = 12072.000000, R = 0.012146, done = 0
# 	                 158:	 N = -49.773026, D = -3.860596, Q = 24144.000000, R = 0.024292, done = 0
# 	                 160:	 N = -49.773026, D = -3.860596, Q = 15520.000000, R = 0.048599, done = 0
# 	                 162:	 N = -49.773026, D = -3.860596, Q = 31040.000000, R = 0.097198, done = 0
# 	                 164:	 N = -49.773026, D = -3.860596, Q = 29312.000000, R = 0.194412, done = 0
# 	                 166:	 N = -49.773026, D = -3.860596, Q = 25856.000000, R = 0.388840, done = 0
# 	                 168:	 N = -49.773026, D = -3.860596, Q = 18944.000000, R = 0.777695, done = 0
# 	                 170:	 N = -49.773026, D = -3.860596, Q = 5120.000000, R = 1.555405, done = 0
# 	                 172:	 N = -49.773026, D = -3.860596, Q = 10240.000000, R = 3.110809, done = 0
# 	                 174:	 N = -49.773026, D = -3.860596, Q = 20480.000015, R = 2.361023, done = 0
# 	                 176:	 N = -49.773026, D = -3.860596, Q = 8192.000046, R = 0.861465, done = 0
# 	                 178:	 N = -49.773026, D = -3.860596, Q = 16384.000092, R = 1.722931, done = 0
# 	                 180:	 N = -49.773026, D = -3.860596, Q = 0.000183, R = 3.445877, done = 0
# 	                 182:	 N = -49.773026, D = -3.860596, Q = 0.000381, R = 3.031158, done = 0
# 	                 184:	 N = -49.773026, D = -3.860596, Q = 0.000778, R = 2.201721, done = 0
# 	                 186:	 N = -49.773026, D = -3.860596, Q = 0.001572, R = 0.542847, done = 0
# 	                 188:	 N = -49.773026, D = -3.860596, Q = 0.003143, R = 1.085693, done = 0
# 	                 190:	 N = -49.773026, D = -3.860596, Q = 0.006287, R = 2.171387, done = 0
# 	                 192:	 N = -49.773026, D = -3.860596, Q = 0.012589, R = 0.482178, done = 0
# 	                 194:	 N = -49.773026, D = -3.860596, Q = 0.025177, R = 0.964355, done = 0
# 	                 196:	 N = -49.773026, D = -3.860596, Q = 0.050354, R = 1.928711, done = 0
# 	                 198:	 N = -49.773026, D = -3.860596, Q = 0.100708, R = 3.857422, done = 0
# 	                 200:	 N = -49.773026, D = -3.860596, Q = 0.201431, R = 3.854248, done = 0
# 	                 202:	 N = -49.773026, D = -3.860596, Q = 0.402878, R = 3.847900, done = 0
# 	                 204:	 N = -49.773026, D = -3.860596, Q = 0.805771, R = 3.835205, done = 0
# 	                 206:	 N = -49.773026, D = -3.860596, Q = 1.611557, R = 3.809814, done = 0
# 	                 208:	 N = -49.773026, D = -3.860596, Q = 3.223129, R = 3.759033, done = 0
# 	                 210:	 N = -49.773026, D = -3.860596, Q = 6.446274, R = 3.657471, done = 0
# 	                 212:	 N = -49.773026, D = -3.860596, Q = 12.892563, R = 3.454346, done = 1
# 	                 220:	 N = -45.234207, D = -1.771622, Q = 45.234207, R = 0.000000, done = 0
# 	                 230:	 N = -45.234207, D = -1.771622, Q = 90.468414, R = 0.000000, done = 0
# 	                 232:	 N = -45.234207, D = -1.771622, Q = 180.936829, R = 0.000000, done = 0
# 	                 234:	 N = -45.234207, D = -1.771622, Q = 361.873657, R = 0.000000, done = 0
# 	                 236:	 N = -45.234207, D = -1.771622, Q = 723.747314, R = 0.000000, done = 0
# 	                 238:	 N = -45.234207, D = -1.771622, Q = 1447.494629, R = 0.000000, done = 0
# 	                 240:	 N = -45.234207, D = -1.771622, Q = 2894.989258, R = 0.000000, done = 0
# 	                 242:	 N = -45.234207, D = -1.771622, Q = 5789.978516, R = 0.000000, done = 0
# 	                 244:	 N = -45.234207, D = -1.771622, Q = 11579.957031, R = 0.000000, done = 0
# 	                 246:	 N = -45.234207, D = -1.771622, Q = 23159.914062, R = 0.000000, done = 0
# 	                 248:	 N = -45.234207, D = -1.771622, Q = 13551.828125, R = 0.000015, done = 0
# 	                 250:	 N = -45.234207, D = -1.771622, Q = 27103.656250, R = 0.000031, done = 0
# 	                 252:	 N = -45.234207, D = -1.771622, Q = 21439.312500, R = 0.000076, done = 0
# 	                 254:	 N = -45.234207, D = -1.771622, Q = 10110.625000, R = 0.000168, done = 0
# 	                 256:	 N = -45.234207, D = -1.771622, Q = 20221.250000, R = 0.000336, done = 0
# 	                 258:	 N = -45.234207, D = -1.771622, Q = 7674.500000, R = 0.000687, done = 0
# 	                 260:	 N = -45.234207, D = -1.771622, Q = 15349.000000, R = 0.001373, done = 0
# 	                 262:	 N = -45.234207, D = -1.771622, Q = 30698.000000, R = 0.002747, done = 0
# 	                 264:	 N = -45.234207, D = -1.771622, Q = 28628.000000, R = 0.005508, done = 0
# 	                 266:	 N = -45.234207, D = -1.771622, Q = 24488.000000, R = 0.011032, done = 0
# 	                 268:	 N = -45.234207, D = -1.771622, Q = 16208.000000, R = 0.022079, done = 0
# 	                 270:	 N = -45.234207, D = -1.771622, Q = 32416.000000, R = 0.044159, done = 0
# 	                 272:	 N = -45.234207, D = -1.771622, Q = 32064.000000, R = 0.088333, done = 0
# 	                 274:	 N = -45.234207, D = -1.771622, Q = 31360.000000, R = 0.176682, done = 0
# 	                 276:	 N = -45.234207, D = -1.771622, Q = 29952.000000, R = 0.353378, done = 0
# 	                 278:	 N = -45.234207, D = -1.771622, Q = 27136.000000, R = 0.706772, done = 0
# 	                 280:	 N = -45.234207, D = -1.771622, Q = 21504.000000, R = 1.413559, done = 0
# 	                 282:	 N = -45.234207, D = -1.771622, Q = 10240.000015, R = 1.055511, done = 0
# 	                 284:	 N = -45.234207, D = -1.771622, Q = 20480.000046, R = 0.339401, done = 0
# 	                 286:	 N = -45.234207, D = -1.771622, Q = 8192.000092, R = 0.678818, done = 0
# 	                 288:	 N = -45.234207, D = -1.771622, Q = 16384.000183, R = 1.357635, done = 0
# 	                 290:	 N = -45.234207, D = -1.771622, Q = 0.000381, R = 0.943665, done = 0
# 	                 292:	 N = -45.234207, D = -1.771622, Q = 0.000778, R = 0.115707, done = 0
# 	                 294:	 N = -45.234207, D = -1.771622, Q = 0.001556, R = 0.231415, done = 0
# 	                 296:	 N = -45.234207, D = -1.771622, Q = 0.003113, R = 0.462830, done = 0
# 	                 298:	 N = -45.234207, D = -1.771622, Q = 0.006226, R = 0.925659, done = 0
# 	                 300:	 N = -45.234207, D = -1.771622, Q = 0.012466, R = 0.079697, done = 0
# 	                 302:	 N = -45.234207, D = -1.771622, Q = 0.024933, R = 0.159393, done = 0
# 	                 304:	 N = -45.234207, D = -1.771622, Q = 0.049866, R = 0.318787, done = 0
# 	                 306:	 N = -45.234207, D = -1.771622, Q = 0.099731, R = 0.637573, done = 0
# 	                 308:	 N = -45.234207, D = -1.771622, Q = 0.199463, R = 1.275146, done = 0
# 	                 310:	 N = -45.234207, D = -1.771622, Q = 0.398941, R = 0.778671, done = 0
# 	                 312:	 N = -45.234207, D = -1.771622, Q = 0.797882, R = 1.557343, done = 0
# 	                 314:	 N = -45.234207, D = -1.771622, Q = 1.595779, R = 1.343063, done = 0
# 	                 316:	 N = -45.234207, D = -1.771622, Q = 3.191574, R = 0.914505, done = 0
# 	                 318:	 N = -45.234207, D = -1.771622, Q = 6.383163, R = 0.057388, done = 0
# 	                 320:	 N = -45.234207, D = -1.771622, Q = 12.766327, R = 0.114777, done = 0
# 	                 322:	 N = -45.234207, D = -1.771622, Q = 25.532654, R = 0.229553, done = 1
# 	                 330:	 N = -21.369690, D = 2.409897, Q = -21.369690, R = 0.000000, done = 0
# 	                 340:	 N = -21.369690, D = 2.409897, Q = -42.739380, R = 0.000000, done = 0
# 	                 342:	 N = -21.369690, D = 2.409897, Q = -85.478760, R = 0.000000, done = 0
# 	                 344:	 N = -21.369690, D = 2.409897, Q = -170.957520, R = 0.000000, done = 0
# 	                 346:	 N = -21.369690, D = 2.409897, Q = -341.915039, R = 0.000000, done = 0
# 	                 348:	 N = -21.369690, D = 2.409897, Q = -683.830078, R = 0.000000, done = 0
# 	                 350:	 N = -21.369690, D = 2.409897, Q = -1367.660156, R = 0.000000, done = 0
# 	                 352:	 N = -21.369690, D = 2.409897, Q = -2735.320312, R = 0.000000, done = 0
# 	                 354:	 N = -21.369690, D = 2.409897, Q = -5470.640625, R = 0.000000, done = 0
# 	                 356:	 N = -21.369690, D = 2.409897, Q = -10941.281250, R = 0.000000, done = 0
# 	                 358:	 N = -21.369690, D = 2.409897, Q = -21882.562500, R = 0.000000, done = 0
# 	                 360:	 N = -21.369690, D = 2.409897, Q = -10997.125000, R = 0.000015, done = 0
# 	                 362:	 N = -21.369690, D = 2.409897, Q = -21994.250000, R = 0.000031, done = 0
# 	                 364:	 N = -21.369690, D = 2.409897, Q = -11220.500000, R = 0.000076, done = 0
# 	                 366:	 N = -21.369690, D = 2.409897, Q = -22441.000000, R = 0.000153, done = 0
# 	                 368:	 N = -21.369690, D = 2.409897, Q = -12114.000000, R = 0.000320, done = 0
# 	                 370:	 N = -21.369690, D = 2.409897, Q = -24228.000000, R = 0.000641, done = 0
# 	                 372:	 N = -21.369690, D = 2.409897, Q = -15688.000000, R = 0.001297, done = 0
# 	                 374:	 N = -21.369690, D = 2.409897, Q = -31376.000000, R = 0.002594, done = 0
# 	                 376:	 N = -21.369690, D = 2.409897, Q = -29984.000000, R = 0.005203, done = 0
# 	                 378:	 N = -21.369690, D = 2.409897, Q = -27200.000000, R = 0.010422, done = 0
# 	                 380:	 N = -21.369690, D = 2.409897, Q = -21632.000000, R = 0.020859, done = 0
# 	                 382:	 N = -21.369690, D = 2.409897, Q = -10496.000000, R = 0.041733, done = 0
# 	                 384:	 N = -21.369690, D = 2.409897, Q = -20992.000000, R = 0.083466, done = 0
# 	                 386:	 N = -21.369690, D = 2.409897, Q = -9216.000000, R = 0.166946, done = 0
# 	                 388:	 N = -21.369690, D = 2.409897, Q = -18432.000000, R = 0.333893, done = 0
# 	                 390:	 N = -21.369690, D = 2.409897, Q = -4096.000000, R = 0.667801, done = 0
# 	                 392:	 N = -21.369690, D = 2.409897, Q = -8192.000000, R = 1.335602, done = 0
# 	                 394:	 N = -21.369690, D = 2.409897, Q = -16384.000015, R = 0.261307, done = 0
# 	                 396:	 N = -21.369690, D = 2.409897, Q = -0.000031, R = 0.522629, done = 0
# 	                 398:	 N = -21.369690, D = 2.409897, Q = -0.000061, R = 1.045258, done = 0
# 	                 400:	 N = -21.369690, D = 2.409897, Q = -0.000122, R = 2.090515, done = 0
# 	                 402:	 N = -21.369690, D = 2.409897, Q = -0.000259, R = 1.771133, done = 0
# 	                 404:	 N = -21.369690, D = 2.409897, Q = -0.000534, R = 1.132370, done = 0
# 	                 406:	 N = -21.369690, D = 2.409897, Q = -0.001068, R = 2.264740, done = 0
# 	                 408:	 N = -21.369690, D = 2.409897, Q = -0.002151, R = 2.119583, done = 0
# 	                 410:	 N = -21.369690, D = 2.409897, Q = -0.004318, R = 1.829269, done = 0
# 	                 412:	 N = -21.369690, D = 2.409897, Q = -0.008652, R = 1.248642, done = 0
# 	                 414:	 N = -21.369690, D = 2.409897, Q = -0.017319, R = 0.087387, done = 0
# 	                 416:	 N = -21.369690, D = 2.409897, Q = -0.034637, R = 0.174774, done = 0
# 	                 418:	 N = -21.369690, D = 2.409897, Q = -0.069275, R = 0.349548, done = 0
# 	                 420:	 N = -21.369690, D = 2.409897, Q = -0.138550, R = 0.699097, done = 0
# 	                 422:	 N = -21.369690, D = 2.409897, Q = -0.277100, R = 1.398193, done = 0
# 	                 424:	 N = -21.369690, D = 2.409897, Q = -0.554214, R = 0.386490, done = 0
# 	                 426:	 N = -21.369690, D = 2.409897, Q = -1.108429, R = 0.772980, done = 0
# 	                 428:	 N = -21.369690, D = 2.409897, Q = -2.216858, R = 1.545959, done = 0
# 	                 430:	 N = -21.369690, D = 2.409897, Q = -4.433731, R = 0.682022, done = 0
# 	                 432:	 N = -21.369690, D = 2.409897, Q = -8.867462, R = 1.364044, done = 1
# 	                 440:	 N = -80.024521, D = -3.255127, Q = 80.024521, R = 0.000000, done = 0
# 	                 450:	 N = -80.024521, D = -3.255127, Q = 160.049042, R = 0.000000, done = 0
# 	                 452:	 N = -80.024521, D = -3.255127, Q = 320.098083, R = 0.000000, done = 0
# 	                 454:	 N = -80.024521, D = -3.255127, Q = 640.196167, R = 0.000000, done = 0
# 	                 456:	 N = -80.024521, D = -3.255127, Q = 1280.392334, R = 0.000000, done = 0
# 	                 458:	 N = -80.024521, D = -3.255127, Q = 2560.784668, R = 0.000000, done = 0
# 	                 460:	 N = -80.024521, D = -3.255127, Q = 5121.569336, R = 0.000000, done = 0
# 	                 462:	 N = -80.024521, D = -3.255127, Q = 10243.138672, R = 0.000000, done = 0
# 	                 464:	 N = -80.024521, D = -3.255127, Q = 20486.277344, R = 0.000000, done = 0
# 	                 466:	 N = -80.024521, D = -3.255127, Q = 8204.554688, R = 0.000015, done = 0
# 	                 468:	 N = -80.024521, D = -3.255127, Q = 16409.109375, R = 0.000031, done = 0
# 	                 470:	 N = -80.024521, D = -3.255127, Q = 50.218750, R = 0.000076, done = 0
# 	                 472:	 N = -80.024521, D = -3.255127, Q = 100.437500, R = 0.000153, done = 0
# 	                 474:	 N = -80.024521, D = -3.255127, Q = 200.875000, R = 0.000305, done = 0
# 	                 476:	 N = -80.024521, D = -3.255127, Q = 401.750000, R = 0.000610, done = 0
# 	                 478:	 N = -80.024521, D = -3.255127, Q = 803.500000, R = 0.001221, done = 0
# 	                 480:	 N = -80.024521, D = -3.255127, Q = 1607.000000, R = 0.002441, done = 0
# 	                 482:	 N = -80.024521, D = -3.255127, Q = 3214.000000, R = 0.004883, done = 0
# 	                 484:	 N = -80.024521, D = -3.255127, Q = 6428.000000, R = 0.009766, done = 0
# 	                 486:	 N = -80.024521, D = -3.255127, Q = 12856.000000, R = 0.019531, done = 0
# 	                 488:	 N = -80.024521, D = -3.255127, Q = 25712.000000, R = 0.039062, done = 0
# 	                 490:	 N = -80.024521, D = -3.255127, Q = 18656.000000, R = 0.078140, done = 0
# 	                 492:	 N = -80.024521, D = -3.255127, Q = 4544.000000, R = 0.156296, done = 0
# 	                 494:	 N = -80.024521, D = -3.255127, Q = 9088.000000, R = 0.312592, done = 0
# 	                 496:	 N = -80.024521, D = -3.255127, Q = 18176.000000, R = 0.625183, done = 0
# 	                 498:	 N = -80.024521, D = -3.255127, Q = 3584.000000, R = 1.250381, done = 0
# 	                 500:	 N = -80.024521, D = -3.255127, Q = 7168.000000, R = 2.500763, done = 0
# 	                 502:	 N = -80.024521, D = -3.255127, Q = 14336.000015, R = 1.746399, done = 0
# 	                 504:	 N = -80.024521, D = -3.255127, Q = 28672.000046, R = 0.237671, done = 0
# 	                 506:	 N = -80.024521, D = -3.255127, Q = 24576.000092, R = 0.475357, done = 0
# 	                 508:	 N = -80.024521, D = -3.255127, Q = 16384.000183, R = 0.950729, done = 0
# 	                 510:	 N = -80.024521, D = -3.255127, Q = 0.000366, R = 1.901474, done = 0
# 	                 512:	 N = -80.024521, D = -3.255127, Q = 0.000748, R = 0.547821, done = 0
# 	                 514:	 N = -80.024521, D = -3.255127, Q = 0.001495, R = 1.095642, done = 0
# 	                 516:	 N = -80.024521, D = -3.255127, Q = 0.002991, R = 2.191284, done = 0
# 	                 518:	 N = -80.024521, D = -3.255127, Q = 0.005997, R = 1.127441, done = 0
# 	                 520:	 N = -80.024521, D = -3.255127, Q = 0.011993, R = 2.254883, done = 0
# 	                 522:	 N = -80.024521, D = -3.255127, Q = 0.024002, R = 1.254639, done = 0
# 	                 524:	 N = -80.024521, D = -3.255127, Q = 0.048004, R = 2.509277, done = 0
# 	                 526:	 N = -80.024521, D = -3.255127, Q = 0.096024, R = 1.763428, done = 0
# 	                 528:	 N = -80.024521, D = -3.255127, Q = 0.192062, R = 0.271729, done = 0
# 	                 530:	 N = -80.024521, D = -3.255127, Q = 0.384125, R = 0.543457, done = 0
# 	                 532:	 N = -80.024521, D = -3.255127, Q = 0.768250, R = 1.086914, done = 0
# 	                 534:	 N = -80.024521, D = -3.255127, Q = 1.536499, R = 2.173828, done = 0
# 	                 536:	 N = -80.024521, D = -3.255127, Q = 3.073013, R = 1.092529, done = 0
# 	                 538:	 N = -80.024521, D = -3.255127, Q = 6.146027, R = 2.185059, done = 0
# 	                 540:	 N = -80.024521, D = -3.255127, Q = 12.292068, R = 1.114990, done = 0
# 	                 542:	 N = -80.024521, D = -3.255127, Q = 24.584137, R = 2.229980, done = 1
# ** Note: $stop    : C:/Users/samue/Documents/Code/SystemVerilog/fluid_simulation/testbenches/div_tb.sv(40)
#    Time: 550 ns  Iteration: 0  Instance: /div_tb
# Break in Module div_tb at C:/Users/samue/Documents/Code/SystemVerilog/fluid_simulation/testbenches/div_tb.sv line 40
# Compile of div_tb.sv was successful.
# Compile of div.sv was successful.
# Compile of sqrt.sv was successful.
# Compile of sqrt_tb.sv was successful.
# Compile of norm.sv failed with 2 errors.
# Compile of norm_tb.sv was successful.
# 6 compiles, 1 failed with 2 errors.
# Compile of div_tb.sv was successful.
# Compile of div.sv was successful.
# Compile of sqrt.sv was successful.
# Compile of sqrt_tb.sv was successful.
# Compile of norm.sv was successful.
# Compile of norm_tb.sv was successful.
# 6 compiles, 0 failed with no errors.
vsim -voptargs=+acc work.norm_tb
# End time: 18:18:50 on Dec 27,2024, Elapsed time: 6:58:59
# Errors: 0, Warnings: 8
# vsim -voptargs="+acc" work.norm_tb 
# Start time: 18:18:50 on Dec 27,2024
# ** Note: (vsim-3812) Design is being optimized...
# ** Warning: (vopt-10587) Some optimizations are turned off because the +acc switch is in effect. This will cause your simulation to run slowly. Please use -access/-debug to maintain needed visibility.
# ** Warning: C:/Users/samue/Documents/Code/SystemVerilog/fluid_simulation/hdl/norm.sv(21): (vopt-2685) [TFMPC] - Too few port connections for 'div_inst'.  Expected 7, found 6.
# ** Warning: C:/Users/samue/Documents/Code/SystemVerilog/fluid_simulation/hdl/norm.sv(21): (vopt-2718) [TFMPC] - Missing connection for port 'r'.
# ** Warning: C:/Users/samue/Documents/Code/SystemVerilog/fluid_simulation/hdl/norm.sv(30): (vopt-2685) [TFMPC] - Too few port connections for 'sqrt_inst'.  Expected 6, found 5.
# ** Warning: C:/Users/samue/Documents/Code/SystemVerilog/fluid_simulation/hdl/norm.sv(30): (vopt-2718) [TFMPC] - Missing connection for port 'rem'.
# ** Note: (vopt-143) Recognized 1 FSM in module "norm(fast)".
# ** Note: (vsim-12126) Error and warning message counts have been restored: Errors=0, Warnings=5.
# Loading sv_std.std
# Loading work.norm_tb(fast)
# Loading work.norm(fast)
# Loading work.div(fast)
# Loading work.divu(fast)
# Loading work.sqrt(fast)
add wave -position end sim:/norm_tb/norm_inst/*
# ** Warning: (vsim-WLF-5000) WLF file currently in use: vsim.wlf
#           File in use by: samue  Hostname: SAMUEL  ProcessID: 9360
#           Attempting to use alternate WLF file "./wlftgbrvqf".
# ** Warning: (vsim-WLF-5001) Could not open WLF file: vsim.wlf
#           Using alternate file: ./wlftgbrvqf
run -all
# 	                   0:	 x = 63.481918, y = 43.408157, xn = 0.000000, yn = 0.000000, done = 0
# 	                 110:	 x = -49.773026, y = -13.893570, xn = 0.000000, yn = 0.000000, done = 0
# 	                 220:	 x = -45.234207, y = -71.854126, xn = 0.000000, yn = 0.000000, done = 0
# 	                 330:	 x = -21.369690, y = 72.495148, xn = 0.000000, yn = 0.000000, done = 0
# 	                 440:	 x = -80.024521, y = -53.307938, xn = 0.000000, yn = 0.000000, done = 0
# ** Note: $stop    : C:/Users/samue/Documents/Code/SystemVerilog/fluid_simulation/testbenches/norm_tb.sv(41)
#    Time: 550 ns  Iteration: 0  Instance: /norm_tb
# Break in Module norm_tb at C:/Users/samue/Documents/Code/SystemVerilog/fluid_simulation/testbenches/norm_tb.sv line 41
# Compile of div_tb.sv was successful.
# Compile of div.sv was successful.
# Compile of sqrt.sv was successful.
# Compile of sqrt_tb.sv was successful.
# Compile of norm.sv was successful.
# Compile of norm_tb.sv was successful.
# 6 compiles, 0 failed with no errors.
restart
# ** Note: (vsim-12125) Error and warning message counts have been reset to '0' because of 'restart'.
# ** Note: (vsim-3813) Design is being optimized due to module recompilation...
# ** Warning: (vopt-10587) Some optimizations are turned off because the +acc switch is in effect. This will cause your simulation to run slowly. Please use -access/-debug to maintain needed visibility.
# ** Warning: C:/Users/samue/Documents/Code/SystemVerilog/fluid_simulation/hdl/norm.sv(21): (vopt-2685) [TFMPC] - Too few port connections for 'div_inst'.  Expected 7, found 6.
